work/transcript
# vsim -c top 
# Start time: 20:44:57 on Dec 03,2025
# ** Note: (vsim-3813) Design is being optimized due to module recompilation...
# //  Questa Sim
# //  Version 10.6c linux Jul 25 2017
# //
# //  Copyright 1991-2017 Mentor Graphics Corporation
# //  All Rights Reserved.
# //
# //  QuestaSim and its associated documentation contain trade
# //  secrets and commercial or financial information that are the property of
# //  Mentor Graphics Corporation and are privileged, confidential,
# //  and exempt from disclosure under the Freedom of Information Act,
# //  5 U.S.C. Section 552. Furthermore, this information
# //  is prohibited from disclosure under the Trade Secrets Act,
# //  18 U.S.C. Section 1905.
# //
# Loading sv_std.std
# Loading work.apb_slv_intf(fast)
# Loading mtiUvm.uvm_pkg
# Loading work.apb_pkg(fast)
# Loading work.top(fast)
# Loading mtiUvm.questa_uvm_pkg(fast)
# Loading /tools/mentor/questasim_10.6c/questasim/uvm-1.1d/linux/uvm_dpi.so
# ----------------------------------------------------------------
# UVM-1.1d
# (C) 2007-2013 Mentor Graphics Corporation
# (C) 2007-2013 Cadence Design Systems, Inc.
# (C) 2006-2013 Synopsys, Inc.
# (C) 2011-2013 Cypress Semiconductor Corp.
# ----------------------------------------------------------------
# 
#   ***********       IMPORTANT RELEASE NOTES         ************
# 
#   You are using a version of the UVM library that has been compiled
#   with `UVM_NO_DEPRECATED undefined.
#   See http://www.eda.org/svdb/view.php?id=3313 for more details.
# 
#   You are using a version of the UVM library that has been compiled
#   with `UVM_OBJECT_MUST_HAVE_CONSTRUCTOR undefined.
#   See http://www.eda.org/svdb/view.php?id=3770 for more details.
# 
#       (Specify +UVM_NO_RELNOTES to turn off this notice)
# 
# UVM_INFO verilog_src/questa_uvm_pkg-1.2/src/questa_uvm_pkg.sv(215) @ 0: reporter [Questa UVM] QUESTA_UVM-1.2.3
# UVM_INFO verilog_src/questa_uvm_pkg-1.2/src/questa_uvm_pkg.sv(217) @ 0: reporter [Questa UVM]  questa_uvm::init(+struct)
# UVM_INFO @ 0: reporter [RNTST] Running test apb_regression...
# UVM_INFO apb_agent.sv(20) @ 0: uvm_test_top.env.active_agent [apb_slv_agent] Agent uvm_test_top.env.active_agent is  ACTIVE
# UVM_INFO apb_agent.sv(20) @ 0: uvm_test_top.env.passive_agent [apb_slv_agent] Agent uvm_test_top.env.passive_agent is  ACTIVE
# active_monitor ...sequence...
# UVM_INFO apb_active_monitor.sv(35) @ 15: uvm_test_top.env.active_agent.active_monitor [uvm_test_top.env.active_agent.active_monitor] apb_seeq_item -> psel: 1 | penable : 1 | pwrite : 1 | paddr : 513527324 | pwdata : 3147155187 | pstrb : 1111 | prdata : 0 | pready : 0 | pslverr : 0
# passive_monitor ...sequence...
# UVM_INFO apb_passive_monitor.sv(31) @ 25: uvm_test_top.env.passive_agent.passive_monitor [uvm_test_top.env.passive_agent.passive_monitor] apb_seeq_item -> psel: 0 | penable : 0 | pwrite : 0 | paddr : 0 | pwdata : 0 | pstrb : 0000 | prdata : 0 | pready : 1 | pslverr : 1
# UVM_INFO apb_scoreboard.sv(47) @ 25: uvm_test_top.env.scoreboard [apb_slv_scoreboard] mem : 0 0 0 0 0 0 0 0 0 0 0 0 0 0 0 0 0 0 0 0 0 0 0 0 0 0 0 0 0 0 0 0 0 0 0 0 0 0 0 0 0 0 0 0 0 0 0 0 0 0 0 0 0 0 0 0 0 0 0 0 0 0 0 0 0 0 0 0 0 0 0 0 0 0 0 0 0 0 0 0 0 0 0 0 0 0 0 0 0 0 0 0 0 0 0 0 0 0 0 0 0 0 0 0 0 0 0 0 0 0 0 0 0 0 0 0 0 0 0 0 0 0 0 0 0 0 0 0 0 0 0 0 0 0 0 0 0 0 0 0 0 0 0 0 0 0 0 0 0 0 0 0 0 0 0 0 0 0 0 0 0 0 0 0 0 0 0 0 0 0 0 0 0 0 0 0 0 0 0 0 0 0 0 0 0 0 0 0 0 0 0 0 0 0 0 0 0 0 0 0 0 0 0 0 0 0 0 0 0 0 0 0 0 0 0 0 0 0 0 0 0 0 0 0 0 0 0 0 0 0 0 0 0 0 0 0 0 0 0 0 0 0 0 0 0 0 0 0 0 0 0 0 0 0 0 0
# exp_pslverr : 1
# active_monitor ...sequence...
# UVM_INFO apb_active_monitor.sv(35) @ 35: uvm_test_top.env.active_agent.active_monitor [uvm_test_top.env.active_agent.active_monitor] apb_seeq_item -> psel: 1 | penable : 1 | pwrite : 0 | paddr : 3538138468 | pwdata : 752883399 | pstrb : 0100 | prdata : 0 | pready : 0 | pslverr : 1
# passive_monitor ...sequence...
# UVM_INFO apb_passive_monitor.sv(31) @ 45: uvm_test_top.env.passive_agent.passive_monitor [uvm_test_top.env.passive_agent.passive_monitor] apb_seeq_item -> psel: 0 | penable : 0 | pwrite : 0 | paddr : 0 | pwdata : 0 | pstrb : 0000 | prdata : 4294967295 | pready : 1 | pslverr : 1
# UVM_INFO apb_scoreboard.sv(68) @ 45: uvm_test_top.env.scoreboard [uvm_test_top.env.scoreboard] MATCH HAS OCCURED WITH PSLVERR...
# UVM_INFO apb_scoreboard.sv(69) @ 45: uvm_test_top.env.scoreboard [uvm_test_top.env.scoreboard] @slverr -> exp_slv_err : 1 | act_slv_err : 1
# active_monitor ...sequence...
# UVM_INFO apb_active_monitor.sv(35) @ 55: uvm_test_top.env.active_agent.active_monitor [uvm_test_top.env.active_agent.active_monitor] apb_seeq_item -> psel: 1 | penable : 1 | pwrite : 0 | paddr : 3116613902 | pwdata : 440953675 | pstrb : 0011 | prdata : 0 | pready : 0 | pslverr : 1
# passive_monitor ...sequence...
# UVM_INFO apb_passive_monitor.sv(31) @ 65: uvm_test_top.env.passive_agent.passive_monitor [uvm_test_top.env.passive_agent.passive_monitor] apb_seeq_item -> psel: 0 | penable : 0 | pwrite : 0 | paddr : 0 | pwdata : 0 | pstrb : 0000 | prdata : 4294967295 | pready : 1 | pslverr : 1
# UVM_INFO apb_scoreboard.sv(68) @ 65: uvm_test_top.env.scoreboard [uvm_test_top.env.scoreboard] MATCH HAS OCCURED WITH PSLVERR...
# UVM_INFO apb_scoreboard.sv(69) @ 65: uvm_test_top.env.scoreboard [uvm_test_top.env.scoreboard] @slverr -> exp_slv_err : 1 | act_slv_err : 1
# active_monitor ...sequence...
# UVM_INFO apb_active_monitor.sv(35) @ 75: uvm_test_top.env.active_agent.active_monitor [uvm_test_top.env.active_agent.active_monitor] apb_seeq_item -> psel: 0 | penable : 0 | pwrite : 1 | paddr : 1032571443 | pwdata : 227536411 | pstrb : 1000 | prdata : 0 | pready : 0 | pslverr : 1
# active_monitor ...sequence...
# UVM_INFO apb_active_monitor.sv(35) @ 85: uvm_test_top.env.active_agent.active_monitor [uvm_test_top.env.active_agent.active_monitor] apb_seeq_item -> psel: 0 | penable : 1 | pwrite : 1 | paddr : 3761849038 | pwdata : 4218294677 | pstrb : 0010 | prdata : 0 | pready : 0 | pslverr : 1
# active_monitor ...sequence...
# UVM_INFO apb_active_monitor.sv(35) @ 95: uvm_test_top.env.active_agent.active_monitor [uvm_test_top.env.active_agent.active_monitor] apb_seeq_item -> psel: 0 | penable : 0 | pwrite : 1 | paddr : 3293024472 | pwdata : 1195730146 | pstrb : 1111 | prdata : 0 | pready : 0 | pslverr : 1
# active_monitor ...sequence...
# UVM_INFO apb_active_monitor.sv(35) @ 105: uvm_test_top.env.active_agent.active_monitor [uvm_test_top.env.active_agent.active_monitor] apb_seeq_item -> psel: 0 | penable : 1 | pwrite : 0 | paddr : 1178367741 | pwdata : 830407299 | pstrb : 1000 | prdata : 0 | pready : 0 | pslverr : 1
# active_monitor ...sequence...
# UVM_INFO apb_active_monitor.sv(35) @ 115: uvm_test_top.env.active_agent.active_monitor [uvm_test_top.env.active_agent.active_monitor] apb_seeq_item -> psel: 1 | penable : 0 | pwrite : 1 | paddr : 3955160497 | pwdata : 3498530529 | pstrb : 1001 | prdata : 0 | pready : 0 | pslverr : 1
# active_monitor ...sequence...
# UVM_INFO apb_active_monitor.sv(35) @ 125: uvm_test_top.env.active_agent.active_monitor [uvm_test_top.env.active_agent.active_monitor] apb_seeq_item -> psel: 1 | penable : 0 | pwrite : 1 | paddr : 3509670835 | pwdata : 2867723903 | pstrb : 1100 | prdata : 0 | pready : 0 | pslverr : 1
# active_monitor ...sequence...
# UVM_INFO apb_active_monitor.sv(35) @ 135: uvm_test_top.env.active_agent.active_monitor [uvm_test_top.env.active_agent.active_monitor] apb_seeq_item -> psel: 1 | penable : 1 | pwrite : 1 | paddr : 4067285552 | pwdata : 26255810 | pstrb : 1010 | prdata : 0 | pready : 0 | pslverr : 1
# passive_monitor ...sequence...
# UVM_INFO apb_passive_monitor.sv(31) @ 145: uvm_test_top.env.passive_agent.passive_monitor [uvm_test_top.env.passive_agent.passive_monitor] apb_seeq_item -> psel: 0 | penable : 0 | pwrite : 0 | paddr : 0 | pwdata : 0 | pstrb : 0000 | prdata : 0 | pready : 1 | pslverr : 1
# UVM_INFO apb_scoreboard.sv(47) @ 145: uvm_test_top.env.scoreboard [apb_slv_scoreboard] mem : 0 0 0 0 0 0 0 0 0 0 0 0 0 0 0 0 0 0 0 0 0 0 0 0 0 0 0 0 0 0 0 0 0 0 0 0 0 0 0 0 0 0 0 0 0 0 0 0 0 0 0 0 0 0 0 0 0 0 0 0 0 0 0 0 0 0 0 0 0 0 0 0 0 0 0 0 0 0 0 0 0 0 0 0 0 0 0 0 0 0 0 0 0 0 0 0 0 0 0 0 0 0 0 0 0 0 0 0 0 0 0 0 0 0 0 0 0 0 0 0 0 0 0 0 0 0 0 0 0 0 0 0 0 0 0 0 0 0 0 0 0 0 0 0 0 0 0 0 0 0 0 0 0 0 0 0 0 0 0 0 0 0 0 0 0 0 0 0 0 0 0 0 0 0 0 0 0 0 0 0 0 0 0 0 0 0 0 0 0 0 0 0 0 0 0 0 0 0 0 0 0 0 0 0 0 0 0 0 0 0 0 0 0 0 0 0 0 0 0 0 0 0 0 0 0 0 0 0 0 0 0 0 0 0 0 0 0 0 0 0 0 0 0 0 0 0 0 0 0 0 0 0 0 0 0 0
# exp_pslverr : 1
# active_monitor ...sequence...
# UVM_INFO apb_active_monitor.sv(35) @ 155: uvm_test_top.env.active_agent.active_monitor [uvm_test_top.env.active_agent.active_monitor] apb_seeq_item -> psel: 0 | penable : 0 | pwrite : 0 | paddr : 1995165210 | pwdata : 1663438425 | pstrb : 1010 | prdata : 0 | pready : 0 | pslverr : 1
# active_monitor ...sequence...
# UVM_INFO apb_active_monitor.sv(35) @ 165: uvm_test_top.env.active_agent.active_monitor [uvm_test_top.env.active_agent.active_monitor] apb_seeq_item -> psel: 0 | penable : 1 | pwrite : 1 | paddr : 2470798066 | pwdata : 1326855400 | pstrb : 1100 | prdata : 0 | pready : 0 | pslverr : 1
# active_monitor ...sequence...
# UVM_INFO apb_active_monitor.sv(35) @ 175: uvm_test_top.env.active_agent.active_monitor [uvm_test_top.env.active_agent.active_monitor] apb_seeq_item -> psel: 0 | penable : 1 | pwrite : 0 | paddr : 3232270477 | pwdata : 121353277 | pstrb : 0000 | prdata : 0 | pready : 0 | pslverr : 1
# active_monitor ...sequence...
# UVM_INFO apb_active_monitor.sv(35) @ 185: uvm_test_top.env.active_agent.active_monitor [uvm_test_top.env.active_agent.active_monitor] apb_seeq_item -> psel: 0 | penable : 0 | pwrite : 1 | paddr : 3342185687 | pwdata : 4250319788 | pstrb : 1001 | prdata : 0 | pready : 0 | pslverr : 1
# active_monitor ...sequence...
# UVM_INFO apb_active_monitor.sv(35) @ 195: uvm_test_top.env.active_agent.active_monitor [uvm_test_top.env.active_agent.active_monitor] apb_seeq_item -> psel: 1 | penable : 1 | pwrite : 0 | paddr : 1274516168 | pwdata : 1255477525 | pstrb : 1101 | prdata : 0 | pready : 0 | pslverr : 1
# passive_monitor ...sequence...
# UVM_INFO apb_passive_monitor.sv(31) @ 205: uvm_test_top.env.passive_agent.passive_monitor [uvm_test_top.env.passive_agent.passive_monitor] apb_seeq_item -> psel: 0 | penable : 0 | pwrite : 0 | paddr : 0 | pwdata : 0 | pstrb : 0000 | prdata : 4294967295 | pready : 1 | pslverr : 1
# UVM_INFO apb_scoreboard.sv(68) @ 205: uvm_test_top.env.scoreboard [uvm_test_top.env.scoreboard] MATCH HAS OCCURED WITH PSLVERR...
# UVM_INFO apb_scoreboard.sv(69) @ 205: uvm_test_top.env.scoreboard [uvm_test_top.env.scoreboard] @slverr -> exp_slv_err : 1 | act_slv_err : 1
# active_monitor ...sequence...
# UVM_INFO apb_active_monitor.sv(35) @ 215: uvm_test_top.env.active_agent.active_monitor [uvm_test_top.env.active_agent.active_monitor] apb_seeq_item -> psel: 0 | penable : 0 | pwrite : 1 | paddr : 3764911248 | pwdata : 2964605284 | pstrb : 1010 | prdata : 0 | pready : 0 | pslverr : 1
# active_monitor ...sequence...
# UVM_INFO apb_active_monitor.sv(35) @ 225: uvm_test_top.env.active_agent.active_monitor [uvm_test_top.env.active_agent.active_monitor] apb_seeq_item -> psel: 0 | penable : 1 | pwrite : 0 | paddr : 1021751386 | pwdata : 2800513480 | pstrb : 1010 | prdata : 0 | pready : 0 | pslverr : 1
# active_monitor ...sequence...
# UVM_INFO apb_active_monitor.sv(35) @ 235: uvm_test_top.env.active_agent.active_monitor [uvm_test_top.env.active_agent.active_monitor] apb_seeq_item -> psel: 1 | penable : 1 | pwrite : 1 | paddr : 1949448797 | pwdata : 41393171 | pstrb : 1010 | prdata : 0 | pready : 0 | pslverr : 1
# passive_monitor ...sequence...
# UVM_INFO apb_passive_monitor.sv(31) @ 245: uvm_test_top.env.passive_agent.passive_monitor [uvm_test_top.env.passive_agent.passive_monitor] apb_seeq_item -> psel: 0 | penable : 0 | pwrite : 0 | paddr : 0 | pwdata : 0 | pstrb : 0000 | prdata : 0 | pready : 1 | pslverr : 1
# UVM_INFO apb_scoreboard.sv(47) @ 245: uvm_test_top.env.scoreboard [apb_slv_scoreboard] mem : 0 0 0 0 0 0 0 0 0 0 0 0 0 0 0 0 0 0 0 0 0 0 0 0 0 0 0 0 0 0 0 0 0 0 0 0 0 0 0 0 0 0 0 0 0 0 0 0 0 0 0 0 0 0 0 0 0 0 0 0 0 0 0 0 0 0 0 0 0 0 0 0 0 0 0 0 0 0 0 0 0 0 0 0 0 0 0 0 0 0 0 0 0 0 0 0 0 0 0 0 0 0 0 0 0 0 0 0 0 0 0 0 0 0 0 0 0 0 0 0 0 0 0 0 0 0 0 0 0 0 0 0 0 0 0 0 0 0 0 0 0 0 0 0 0 0 0 0 0 0 0 0 0 0 0 0 0 0 0 0 0 0 0 0 0 0 0 0 0 0 0 0 0 0 0 0 0 0 0 0 0 0 0 0 0 0 0 0 0 0 0 0 0 0 0 0 0 0 0 0 0 0 0 0 0 0 0 0 0 0 0 0 0 0 0 0 0 0 0 0 0 0 0 0 0 0 0 0 0 0 0 0 0 0 0 0 0 0 0 0 0 0 0 0 0 0 0 0 0 0 0 0 0 0 0 0
# exp_pslverr : 1
# active_monitor ...sequence...
# UVM_INFO apb_active_monitor.sv(35) @ 255: uvm_test_top.env.active_agent.active_monitor [uvm_test_top.env.active_agent.active_monitor] apb_seeq_item -> psel: 0 | penable : 1 | pwrite : 1 | paddr : 3792171440 | pwdata : 2345020175 | pstrb : 1001 | prdata : 0 | pready : 0 | pslverr : 1
# active_monitor ...sequence...
# UVM_INFO apb_active_monitor.sv(35) @ 265: uvm_test_top.env.active_agent.active_monitor [uvm_test_top.env.active_agent.active_monitor] apb_seeq_item -> psel: 0 | penable : 0 | pwrite : 0 | paddr : 3168909432 | pwdata : 2136835533 | pstrb : 0100 | prdata : 0 | pready : 0 | pslverr : 1
# active_monitor ...sequence...
# UVM_INFO apb_active_monitor.sv(35) @ 275: uvm_test_top.env.active_agent.active_monitor [uvm_test_top.env.active_agent.active_monitor] apb_seeq_item -> psel: 0 | penable : 0 | pwrite : 1 | paddr : 0 | pwdata : 5 | pstrb : 1111 | prdata : 0 | pready : 0 | pslverr : 1
# active_monitor ...sequence...
# UVM_INFO apb_active_monitor.sv(35) @ 285: uvm_test_top.env.active_agent.active_monitor [uvm_test_top.env.active_agent.active_monitor] apb_seeq_item -> psel: 1 | penable : 0 | pwrite : 1 | paddr : 0 | pwdata : 5 | pstrb : 1111 | prdata : 0 | pready : 0 | pslverr : 1
# active_monitor ...sequence...
# UVM_INFO apb_active_monitor.sv(35) @ 295: uvm_test_top.env.active_agent.active_monitor [uvm_test_top.env.active_agent.active_monitor] apb_seeq_item -> psel: 1 | penable : 1 | pwrite : 1 | paddr : 0 | pwdata : 5 | pstrb : 1111 | prdata : 0 | pready : 0 | pslverr : 1
# passive_monitor ...sequence...
# UVM_INFO apb_passive_monitor.sv(31) @ 305: uvm_test_top.env.passive_agent.passive_monitor [uvm_test_top.env.passive_agent.passive_monitor] apb_seeq_item -> psel: 0 | penable : 0 | pwrite : 0 | paddr : 0 | pwdata : 0 | pstrb : 0000 | prdata : 0 | pready : 1 | pslverr : 0
# UVM_INFO apb_scoreboard.sv(47) @ 305: uvm_test_top.env.scoreboard [apb_slv_scoreboard] mem : 5 0 0 0 0 0 0 0 0 0 0 0 0 0 0 0 0 0 0 0 0 0 0 0 0 0 0 0 0 0 0 0 0 0 0 0 0 0 0 0 0 0 0 0 0 0 0 0 0 0 0 0 0 0 0 0 0 0 0 0 0 0 0 0 0 0 0 0 0 0 0 0 0 0 0 0 0 0 0 0 0 0 0 0 0 0 0 0 0 0 0 0 0 0 0 0 0 0 0 0 0 0 0 0 0 0 0 0 0 0 0 0 0 0 0 0 0 0 0 0 0 0 0 0 0 0 0 0 0 0 0 0 0 0 0 0 0 0 0 0 0 0 0 0 0 0 0 0 0 0 0 0 0 0 0 0 0 0 0 0 0 0 0 0 0 0 0 0 0 0 0 0 0 0 0 0 0 0 0 0 0 0 0 0 0 0 0 0 0 0 0 0 0 0 0 0 0 0 0 0 0 0 0 0 0 0 0 0 0 0 0 0 0 0 0 0 0 0 0 0 0 0 0 0 0 0 0 0 0 0 0 0 0 0 0 0 0 0 0 0 0 0 0 0 0 0 0 0 0 0 0 0 0 0 0 0
# exp_pslverr : 0
# active_monitor ...sequence...
# UVM_INFO apb_active_monitor.sv(35) @ 315: uvm_test_top.env.active_agent.active_monitor [uvm_test_top.env.active_agent.active_monitor] apb_seeq_item -> psel: 1 | penable : 0 | pwrite : 0 | paddr : 2289375888 | pwdata : 2545090849 | pstrb : 1000 | prdata : 0 | pready : 0 | pslverr : 0
# active_monitor ...sequence...
# UVM_INFO apb_active_monitor.sv(35) @ 325: uvm_test_top.env.active_agent.active_monitor [uvm_test_top.env.active_agent.active_monitor] apb_seeq_item -> psel: 1 | penable : 0 | pwrite : 1 | paddr : 1 | pwdata : 10 | pstrb : 1111 | prdata : 0 | pready : 0 | pslverr : 0
# active_monitor ...sequence...
# UVM_INFO apb_active_monitor.sv(35) @ 335: uvm_test_top.env.active_agent.active_monitor [uvm_test_top.env.active_agent.active_monitor] apb_seeq_item -> psel: 1 | penable : 1 | pwrite : 1 | paddr : 1 | pwdata : 10 | pstrb : 1111 | prdata : 0 | pready : 0 | pslverr : 0
# passive_monitor ...sequence...
# UVM_INFO apb_passive_monitor.sv(31) @ 345: uvm_test_top.env.passive_agent.passive_monitor [uvm_test_top.env.passive_agent.passive_monitor] apb_seeq_item -> psel: 0 | penable : 0 | pwrite : 0 | paddr : 0 | pwdata : 0 | pstrb : 0000 | prdata : 0 | pready : 1 | pslverr : 0
# UVM_INFO apb_scoreboard.sv(47) @ 345: uvm_test_top.env.scoreboard [apb_slv_scoreboard] mem : 5 10 0 0 0 0 0 0 0 0 0 0 0 0 0 0 0 0 0 0 0 0 0 0 0 0 0 0 0 0 0 0 0 0 0 0 0 0 0 0 0 0 0 0 0 0 0 0 0 0 0 0 0 0 0 0 0 0 0 0 0 0 0 0 0 0 0 0 0 0 0 0 0 0 0 0 0 0 0 0 0 0 0 0 0 0 0 0 0 0 0 0 0 0 0 0 0 0 0 0 0 0 0 0 0 0 0 0 0 0 0 0 0 0 0 0 0 0 0 0 0 0 0 0 0 0 0 0 0 0 0 0 0 0 0 0 0 0 0 0 0 0 0 0 0 0 0 0 0 0 0 0 0 0 0 0 0 0 0 0 0 0 0 0 0 0 0 0 0 0 0 0 0 0 0 0 0 0 0 0 0 0 0 0 0 0 0 0 0 0 0 0 0 0 0 0 0 0 0 0 0 0 0 0 0 0 0 0 0 0 0 0 0 0 0 0 0 0 0 0 0 0 0 0 0 0 0 0 0 0 0 0 0 0 0 0 0 0 0 0 0 0 0 0 0 0 0 0 0 0 0 0 0 0 0 0
# exp_pslverr : 0
# active_monitor ...sequence...
# UVM_INFO apb_active_monitor.sv(35) @ 355: uvm_test_top.env.active_agent.active_monitor [uvm_test_top.env.active_agent.active_monitor] apb_seeq_item -> psel: 1 | penable : 0 | pwrite : 0 | paddr : 1018390149 | pwdata : 1520740764 | pstrb : 1100 | prdata : 0 | pready : 0 | pslverr : 0
# active_monitor ...sequence...
# UVM_INFO apb_active_monitor.sv(35) @ 365: uvm_test_top.env.active_agent.active_monitor [uvm_test_top.env.active_agent.active_monitor] apb_seeq_item -> psel: 1 | penable : 0 | pwrite : 1 | paddr : 2 | pwdata : 15 | pstrb : 1111 | prdata : 0 | pready : 0 | pslverr : 0
# active_monitor ...sequence...
# UVM_INFO apb_active_monitor.sv(35) @ 375: uvm_test_top.env.active_agent.active_monitor [uvm_test_top.env.active_agent.active_monitor] apb_seeq_item -> psel: 1 | penable : 1 | pwrite : 1 | paddr : 2 | pwdata : 15 | pstrb : 1111 | prdata : 0 | pready : 0 | pslverr : 0
# passive_monitor ...sequence...
# UVM_INFO apb_passive_monitor.sv(31) @ 385: uvm_test_top.env.passive_agent.passive_monitor [uvm_test_top.env.passive_agent.passive_monitor] apb_seeq_item -> psel: 0 | penable : 0 | pwrite : 0 | paddr : 0 | pwdata : 0 | pstrb : 0000 | prdata : 0 | pready : 1 | pslverr : 0
# UVM_INFO apb_scoreboard.sv(47) @ 385: uvm_test_top.env.scoreboard [apb_slv_scoreboard] mem : 5 10 15 0 0 0 0 0 0 0 0 0 0 0 0 0 0 0 0 0 0 0 0 0 0 0 0 0 0 0 0 0 0 0 0 0 0 0 0 0 0 0 0 0 0 0 0 0 0 0 0 0 0 0 0 0 0 0 0 0 0 0 0 0 0 0 0 0 0 0 0 0 0 0 0 0 0 0 0 0 0 0 0 0 0 0 0 0 0 0 0 0 0 0 0 0 0 0 0 0 0 0 0 0 0 0 0 0 0 0 0 0 0 0 0 0 0 0 0 0 0 0 0 0 0 0 0 0 0 0 0 0 0 0 0 0 0 0 0 0 0 0 0 0 0 0 0 0 0 0 0 0 0 0 0 0 0 0 0 0 0 0 0 0 0 0 0 0 0 0 0 0 0 0 0 0 0 0 0 0 0 0 0 0 0 0 0 0 0 0 0 0 0 0 0 0 0 0 0 0 0 0 0 0 0 0 0 0 0 0 0 0 0 0 0 0 0 0 0 0 0 0 0 0 0 0 0 0 0 0 0 0 0 0 0 0 0 0 0 0 0 0 0 0 0 0 0 0 0 0 0 0 0 0 0 0
# exp_pslverr : 0
# active_monitor ...sequence...
# UVM_INFO apb_active_monitor.sv(35) @ 395: uvm_test_top.env.active_agent.active_monitor [uvm_test_top.env.active_agent.active_monitor] apb_seeq_item -> psel: 1 | penable : 0 | pwrite : 0 | paddr : 274696287 | pwdata : 4255911081 | pstrb : 1010 | prdata : 0 | pready : 0 | pslverr : 0
# active_monitor ...sequence...
# UVM_INFO apb_active_monitor.sv(35) @ 405: uvm_test_top.env.active_agent.active_monitor [uvm_test_top.env.active_agent.active_monitor] apb_seeq_item -> psel: 1 | penable : 0 | pwrite : 1 | paddr : 3 | pwdata : 20 | pstrb : 1111 | prdata : 0 | pready : 0 | pslverr : 0
# active_monitor ...sequence...
# UVM_INFO apb_active_monitor.sv(35) @ 415: uvm_test_top.env.active_agent.active_monitor [uvm_test_top.env.active_agent.active_monitor] apb_seeq_item -> psel: 1 | penable : 1 | pwrite : 1 | paddr : 3 | pwdata : 20 | pstrb : 1111 | prdata : 0 | pready : 0 | pslverr : 0
# passive_monitor ...sequence...
# UVM_INFO apb_passive_monitor.sv(31) @ 425: uvm_test_top.env.passive_agent.passive_monitor [uvm_test_top.env.passive_agent.passive_monitor] apb_seeq_item -> psel: 0 | penable : 0 | pwrite : 0 | paddr : 0 | pwdata : 0 | pstrb : 0000 | prdata : 0 | pready : 1 | pslverr : 0
# UVM_INFO apb_scoreboard.sv(47) @ 425: uvm_test_top.env.scoreboard [apb_slv_scoreboard] mem : 5 10 15 20 0 0 0 0 0 0 0 0 0 0 0 0 0 0 0 0 0 0 0 0 0 0 0 0 0 0 0 0 0 0 0 0 0 0 0 0 0 0 0 0 0 0 0 0 0 0 0 0 0 0 0 0 0 0 0 0 0 0 0 0 0 0 0 0 0 0 0 0 0 0 0 0 0 0 0 0 0 0 0 0 0 0 0 0 0 0 0 0 0 0 0 0 0 0 0 0 0 0 0 0 0 0 0 0 0 0 0 0 0 0 0 0 0 0 0 0 0 0 0 0 0 0 0 0 0 0 0 0 0 0 0 0 0 0 0 0 0 0 0 0 0 0 0 0 0 0 0 0 0 0 0 0 0 0 0 0 0 0 0 0 0 0 0 0 0 0 0 0 0 0 0 0 0 0 0 0 0 0 0 0 0 0 0 0 0 0 0 0 0 0 0 0 0 0 0 0 0 0 0 0 0 0 0 0 0 0 0 0 0 0 0 0 0 0 0 0 0 0 0 0 0 0 0 0 0 0 0 0 0 0 0 0 0 0 0 0 0 0 0 0 0 0 0 0 0 0 0 0 0 0 0 0
# exp_pslverr : 0
# active_monitor ...sequence...
# UVM_INFO apb_active_monitor.sv(35) @ 435: uvm_test_top.env.active_agent.active_monitor [uvm_test_top.env.active_agent.active_monitor] apb_seeq_item -> psel: 1 | penable : 0 | pwrite : 1 | paddr : 2384078533 | pwdata : 3162362947 | pstrb : 0011 | prdata : 0 | pready : 0 | pslverr : 0
# active_monitor ...sequence...
# UVM_INFO apb_active_monitor.sv(35) @ 445: uvm_test_top.env.active_agent.active_monitor [uvm_test_top.env.active_agent.active_monitor] apb_seeq_item -> psel: 1 | penable : 0 | pwrite : 1 | paddr : 4 | pwdata : 25 | pstrb : 1111 | prdata : 0 | pready : 0 | pslverr : 0
# active_monitor ...sequence...
# UVM_INFO apb_active_monitor.sv(35) @ 455: uvm_test_top.env.active_agent.active_monitor [uvm_test_top.env.active_agent.active_monitor] apb_seeq_item -> psel: 1 | penable : 1 | pwrite : 1 | paddr : 4 | pwdata : 25 | pstrb : 1111 | prdata : 0 | pready : 0 | pslverr : 0
# passive_monitor ...sequence...
# UVM_INFO apb_passive_monitor.sv(31) @ 465: uvm_test_top.env.passive_agent.passive_monitor [uvm_test_top.env.passive_agent.passive_monitor] apb_seeq_item -> psel: 0 | penable : 0 | pwrite : 0 | paddr : 0 | pwdata : 0 | pstrb : 0000 | prdata : 0 | pready : 1 | pslverr : 0
# UVM_INFO apb_scoreboard.sv(47) @ 465: uvm_test_top.env.scoreboard [apb_slv_scoreboard] mem : 5 10 15 20 25 0 0 0 0 0 0 0 0 0 0 0 0 0 0 0 0 0 0 0 0 0 0 0 0 0 0 0 0 0 0 0 0 0 0 0 0 0 0 0 0 0 0 0 0 0 0 0 0 0 0 0 0 0 0 0 0 0 0 0 0 0 0 0 0 0 0 0 0 0 0 0 0 0 0 0 0 0 0 0 0 0 0 0 0 0 0 0 0 0 0 0 0 0 0 0 0 0 0 0 0 0 0 0 0 0 0 0 0 0 0 0 0 0 0 0 0 0 0 0 0 0 0 0 0 0 0 0 0 0 0 0 0 0 0 0 0 0 0 0 0 0 0 0 0 0 0 0 0 0 0 0 0 0 0 0 0 0 0 0 0 0 0 0 0 0 0 0 0 0 0 0 0 0 0 0 0 0 0 0 0 0 0 0 0 0 0 0 0 0 0 0 0 0 0 0 0 0 0 0 0 0 0 0 0 0 0 0 0 0 0 0 0 0 0 0 0 0 0 0 0 0 0 0 0 0 0 0 0 0 0 0 0 0 0 0 0 0 0 0 0 0 0 0 0 0 0 0 0 0 0 0
# exp_pslverr : 0
# active_monitor ...sequence...
# UVM_INFO apb_active_monitor.sv(35) @ 475: uvm_test_top.env.active_agent.active_monitor [uvm_test_top.env.active_agent.active_monitor] apb_seeq_item -> psel: 1 | penable : 0 | pwrite : 1 | paddr : 295670268 | pwdata : 249006305 | pstrb : 0010 | prdata : 0 | pready : 0 | pslverr : 0
# active_monitor ...sequence...
# UVM_INFO apb_active_monitor.sv(35) @ 485: uvm_test_top.env.active_agent.active_monitor [uvm_test_top.env.active_agent.active_monitor] apb_seeq_item -> psel: 1 | penable : 0 | pwrite : 1 | paddr : 5 | pwdata : 30 | pstrb : 1111 | prdata : 0 | pready : 0 | pslverr : 0
# active_monitor ...sequence...
# UVM_INFO apb_active_monitor.sv(35) @ 495: uvm_test_top.env.active_agent.active_monitor [uvm_test_top.env.active_agent.active_monitor] apb_seeq_item -> psel: 1 | penable : 1 | pwrite : 1 | paddr : 5 | pwdata : 30 | pstrb : 1111 | prdata : 0 | pready : 0 | pslverr : 0
# passive_monitor ...sequence...
# UVM_INFO apb_passive_monitor.sv(31) @ 505: uvm_test_top.env.passive_agent.passive_monitor [uvm_test_top.env.passive_agent.passive_monitor] apb_seeq_item -> psel: 0 | penable : 0 | pwrite : 0 | paddr : 0 | pwdata : 0 | pstrb : 0000 | prdata : 0 | pready : 1 | pslverr : 0
