src/dump.vcd
$date
	Sun Dec  7 12:38:12 2025
$end
$version
	QuestaSim Version 10.6c
$end
$timescale
	1ns
$end

$scope module uvm_root $end
$upscope $end

$scope module top $end
$var reg 1 ! pclk $end
$var reg 1 " presetn $end
$var event 1 # active_monitor_trigger $end
$var event 1 $ passive_monitor_trigger $end

$scope module dut $end
$var parameter 32 % ADDR_WIDTH $end
$var parameter 32 & DATA_WIDTH $end
$var parameter 32 ' MEM_DEPTH $end
$var parameter 32 ( BYTE_WIDTH $end
$var parameter 32 ) NUM_BYTES $end
$var wire 1 * PCLK $end
$var wire 1 + PRESETn $end
$var wire 1 , PADDR [31] $end
$var wire 1 - PADDR [30] $end
$var wire 1 . PADDR [29] $end
$var wire 1 / PADDR [28] $end
$var wire 1 0 PADDR [27] $end
$var wire 1 1 PADDR [26] $end
$var wire 1 2 PADDR [25] $end
$var wire 1 3 PADDR [24] $end
$var wire 1 4 PADDR [23] $end
$var wire 1 5 PADDR [22] $end
$var wire 1 6 PADDR [21] $end
$var wire 1 7 PADDR [20] $end
$var wire 1 8 PADDR [19] $end
$var wire 1 9 PADDR [18] $end
$var wire 1 : PADDR [17] $end
$var wire 1 ; PADDR [16] $end
$var wire 1 < PADDR [15] $end
$var wire 1 = PADDR [14] $end
$var wire 1 > PADDR [13] $end
$var wire 1 ? PADDR [12] $end
$var wire 1 @ PADDR [11] $end
$var wire 1 A PADDR [10] $end
$var wire 1 B PADDR [9] $end
$var wire 1 C PADDR [8] $end
$var wire 1 D PADDR [7] $end
$var wire 1 E PADDR [6] $end
$var wire 1 F PADDR [5] $end
$var wire 1 G PADDR [4] $end
$var wire 1 H PADDR [3] $end
$var wire 1 I PADDR [2] $end
$var wire 1 J PADDR [1] $end
$var wire 1 K PADDR [0] $end
$var wire 1 L PSEL $end
$var wire 1 M PENABLE $end
$var wire 1 N PWRITE $end
$var wire 1 O PWDATA [31] $end
$var wire 1 P PWDATA [30] $end
$var wire 1 Q PWDATA [29] $end
$var wire 1 R PWDATA [28] $end
$var wire 1 S PWDATA [27] $end
$var wire 1 T PWDATA [26] $end
$var wire 1 U PWDATA [25] $end
$var wire 1 V PWDATA [24] $end
$var wire 1 W PWDATA [23] $end
$var wire 1 X PWDATA [22] $end
$var wire 1 Y PWDATA [21] $end
$var wire 1 Z PWDATA [20] $end
$var wire 1 [ PWDATA [19] $end
$var wire 1 \ PWDATA [18] $end
$var wire 1 ] PWDATA [17] $end
$var wire 1 ^ PWDATA [16] $end
$var wire 1 _ PWDATA [15] $end
$var wire 1 ` PWDATA [14] $end
$var wire 1 a PWDATA [13] $end
$var wire 1 b PWDATA [12] $end
$var wire 1 c PWDATA [11] $end
$var wire 1 d PWDATA [10] $end
$var wire 1 e PWDATA [9] $end
$var wire 1 f PWDATA [8] $end
$var wire 1 g PWDATA [7] $end
$var wire 1 h PWDATA [6] $end
$var wire 1 i PWDATA [5] $end
$var wire 1 j PWDATA [4] $end
$var wire 1 k PWDATA [3] $end
$var wire 1 l PWDATA [2] $end
$var wire 1 m PWDATA [1] $end
$var wire 1 n PWDATA [0] $end
$var wire 1 o PSTRB [3] $end
$var wire 1 p PSTRB [2] $end
$var wire 1 q PSTRB [1] $end
$var wire 1 r PSTRB [0] $end
$var reg 32 s PRDATA [31:0] $end
$var wire 1 t PREADY $end
$var wire 1 u PSLVERR $end
$var wire 1 v transfer $end
$var wire 1 w write_enable $end
$var wire 1 x read_enable $end
$var wire 1 y addr_valid $end
$var integer 32 z i $end
$upscope $end
$upscope $end

$scope begin uvm_pkg $end
$var parameter 32 { UVM_HDL_MAX_WIDTH $end
$var parameter 32 | UVM_STREAMBITS $end
$var parameter 32 } UVM_RADIX $end
$var parameter 32 ~ UVM_MACRO_NUMFLAGS $end
$var parameter 32 !! UVM_DEFAULT $end
$var parameter 32 "! UVM_ALL_ON $end
$var parameter 32 #! UVM_FLAGS_ON $end
$var parameter 32 $! UVM_FLAGS_OFF $end
$var parameter 32 %! UVM_COPY $end
$var parameter 32 &! UVM_NOCOPY $end
$var parameter 32 '! UVM_COMPARE $end
$var parameter 32 (! UVM_NOCOMPARE $end
$var parameter 32 )! UVM_PRINT $end
$var parameter 32 *! UVM_NOPRINT $end
$var parameter 32 +! UVM_RECORD $end
$var parameter 32 ,! UVM_NORECORD $end
$var parameter 32 -! UVM_PACK $end
$var parameter 32 .! UVM_NOPACK $end
$var parameter 32 /! UVM_PHYSICAL $end
$var parameter 32 0! UVM_ABSTRACT $end
$var parameter 32 1! UVM_READONLY $end
$var parameter 32 2! UVM_NODEFPRINT $end
$var parameter 32 3! UVM_MACRO_EXTRAS $end
$var parameter 32 4! UVM_FLAGS $end
$var parameter 32 5! UVM_UNPACK $end
$var parameter 32 6! UVM_CHECK_FIELDS $end
$var parameter 32 7! UVM_END_DATA_EXTRA $end
$var parameter 32 8! UVM_START_FUNCS $end
$var parameter 32 9! UVM_SET $end
$var parameter 32 :! UVM_SETINT $end
$var parameter 32 ;! UVM_SETOBJ $end
$var parameter 32 <! UVM_SETSTR $end
$var parameter 32 =! UVM_END_FUNCS $end
$var parameter 32 >! UVM_STR_CRC_POLYNOMIAL $end
$var parameter 32 ?! UVM_STDOUT $end
$var parameter 32 @! UVM_LINE_WIDTH $end
$var parameter 32 A! UVM_NUM_LINES $end
$var parameter 32 B! UVM_SMALL_STRING $end
$var parameter 32 C! UVM_LARGE_STRING $end
$var reg 1 D! uvm_start_uvm_declarations $end
$var integer 32 E! uvm_global_random_seed $end
$var integer 32 F! UVM_UNBOUNDED_CONNECTIONS $end

$scope function uvm_hdl_check_path $end
$var integer 32 G! uvm_hdl_check_path $end
$upscope $end

$scope function uvm_hdl_deposit $end
$var integer 32 H! uvm_hdl_deposit $end
$var reg 1024 I! value [1023:0] $end
$upscope $end

$scope function uvm_hdl_force $end
$var integer 32 J! uvm_hdl_force $end
$var reg 1024 K! value [1023:0] $end
$upscope $end

$scope task uvm_hdl_force_time $end
$var reg 1024 L! value [1023:0] $end
$var time 64 M! force_time $end
$upscope $end

$scope function uvm_hdl_release_and_read $end
$var integer 32 N! uvm_hdl_release_and_read $end
$var reg 1024 O! value [1023:0] $end
$upscope $end

$scope function uvm_hdl_release $end
$var integer 32 P! uvm_hdl_release $end
$upscope $end

$scope function uvm_hdl_read $end
$var integer 32 Q! uvm_hdl_read $end
$var reg 1024 R! value [1023:0] $end
$upscope $end

$scope function uvm_dpi_get_next_arg_c $end
$upscope $end

$scope function uvm_dpi_get_tool_name_c $end
$upscope $end

$scope function uvm_dpi_get_tool_version_c $end
$upscope $end

$scope function uvm_dpi_get_next_arg $end
$upscope $end

$scope function uvm_dpi_get_tool_name $end
$upscope $end

$scope function uvm_dpi_get_tool_version $end
$upscope $end

$scope function uvm_dpi_regcomp $end
$upscope $end

$scope function uvm_dpi_regexec $end
$var integer 32 S! uvm_dpi_regexec $end
$upscope $end

$scope function uvm_dpi_regfree $end
$upscope $end

$scope function uvm_re_match $end
$var integer 32 T! uvm_re_match $end
$upscope $end

$scope function uvm_dump_re_cache $end
$upscope $end

$scope function uvm_glob_to_re $end
$upscope $end

$scope function uvm_revision_string $end
$upscope $end

$scope function uvm_radix_to_string $end
$var integer 32 U! radix $end
$upscope $end

$scope function uvm_instance_scope $end
$var reg 8 V! c [7:0] $end
$var integer 32 W! pos $end
$upscope $end

$scope function uvm_oneway_hash $end
$var integer 32 X! uvm_oneway_hash $end
$var integer 32 Y! seed $end
$var reg 1 Z! msb $end
$var reg 8 [! current_byte [7:0] $end
$var reg 32 \! crc1 [31:0] $end
$upscope $end

$scope function uvm_create_random_seed $end
$var integer 32 ]! uvm_create_random_seed $end
$upscope $end

$scope function uvm_object_value_str $end
$upscope $end

$scope function uvm_leaf_scope $end
$var reg 8 ^! scope_separator [7:0] $end
$var reg 8 _! bracket_match [7:0] $end
$var integer 32 `! pos $end
$var integer 32 a! bmatches $end
$upscope $end

$scope function uvm_vector_to_string $end
$var reg 4096 b! value [4095:0] $end
$var integer 32 c! size $end
$var integer 32 d! radix $end
$upscope $end

$scope function uvm_get_array_index_int $end
$var integer 32 e! uvm_get_array_index_int $end
$var reg 1 f! is_wildcard $end
$var integer 32 g! i $end
$upscope $end

$scope function uvm_get_array_index_string $end
$var reg 1 h! is_wildcard $end
$var integer 32 i! i $end
$upscope $end

$scope function uvm_is_array $end
$var reg 1 j! uvm_is_array $end
$upscope $end

$scope function uvm_has_wildcard $end
$upscope $end

$scope task run_test $end
$upscope $end

$scope function global_stop_request $end
$upscope $end

$scope function set_global_timeout $end
$var time 64 k! timeout $end
$var reg 1 l! overridable $end
$upscope $end

$scope function set_global_stop_timeout $end
$var time 64 m! timeout $end
$upscope $end

$scope function uvm_report_enabled $end
$var reg 1 n! uvm_report_enabled $end
$var integer 32 o! verbosity $end
$var reg 2 p! severity [1:0] $end
$upscope $end

$scope function uvm_report $end
$var reg 2 q! severity [1:0] $end
$var integer 32 r! verbosity $end
$var integer 32 s! line $end
$upscope $end

$scope function uvm_report_info $end
$var integer 32 t! verbosity $end
$var integer 32 u! line $end
$upscope $end

$scope function uvm_report_warning $end
$var integer 32 v! verbosity $end
$var integer 32 w! line $end
$upscope $end

$scope function uvm_report_error $end
$var integer 32 x! verbosity $end
$var integer 32 y! line $end
$upscope $end

$scope function uvm_report_fatal $end
$var integer 32 z! verbosity $end
$var integer 32 {! line $end
$upscope $end

$scope function uvm_string_to_severity $end
$var reg 1 |! uvm_string_to_severity $end
$var reg 2 }! sev [1:0] $end
$upscope $end

$scope function uvm_string_to_action $end
$upscope $end

$scope function set_config_int $end
$var reg 4096 ~! value [4095:0] $end
$upscope $end

$scope function set_config_object $end
$var reg 1 !" clone $end
$upscope $end

$scope function set_config_string $end
$upscope $end

$scope function uvm_is_match $end
$var reg 1 "" uvm_is_match $end
$upscope $end

$scope function uvm_string_to_bits $end
$var reg 115200 #" uvm_string_to_bits [115199:0] $end
$upscope $end

$scope function uvm_bits_to_string $end
$var reg 115200 $" str [115199:0] $end
$upscope $end

$scope task uvm_wait_for_nba_region $end
$var integer 32 %" nba $end
$var integer 32 &" next_nba $end
$upscope $end

$scope function uvm_split_string $end
$upscope $end

$scope function uvm_hdl_concat2string $end
$upscope $end
$upscope $end

$scope begin apb_pkg $end
$upscope $end

$scope begin top_sv_unit $end
$upscope $end

$scope begin std $end
$upscope $end

$scope begin questa_uvm_pkg $end
$upscope $end
$enddefinitions $end
#0
$dumpvars
0!
0"
b0 s
0h!
0j!
0|!
b0 }!
bx #"
bx $"
bx I!
bx K!
bx L!
bx O!
bx R!
1D!
1Z!
b1110001 [!
b11001011010111011100100110111101 \!
bx b!
0f!
0l!
0n!
b0 p!
b0 q!
bx ~!
0!"
0""
b100000 %
b100000 &
b100000000 '
b1000 (
b100 )
b10000000000 {
b1000000000000 |
b1111000000000000000000000000 }
b10001 ~
b10101010101 !!
b101010101 "!
b101010101 #!
b0 $!
b1 %!
b10 &!
b100 '!
b1000 (!
b10000 )!
b100000 *!
b1000000 +!
b10000000 ,!
b100000000 -!
b1000000000 .!
b10000000000000 /!
b100000000000000 0!
b1000000000000000 1!
b10000000000000000 2!
b100000000000000000 3!
b100000000000000001 4!
b100000000000000010 5!
b100000000000000011 6!
b100000000000000100 7!
b100000000000000101 8!
b100000000000000110 9!
b100000000000000110 :!
b100000000000000111 ;!
b100000000000001000 <!
b100000000000001000 =!
b100110000010001110110110110 >!
b1 ?!
b1111000 @!
b1111000 A!
b1110111111 B!
b11100000111111111 C!
1#
1$
b100000000 z
b0 U!
b0 ^!
b0 _!
b0 `!
b0 a!
b0 i!
b0 G!
b0 H!
b0 J!
b0 N!
b0 P!
b0 Q!
b1 S!
b0 T!
b1101001011000001111100000011110 E!
b101110 V!
b111 W!
b10101011100101111001101001010010 X!
b1101001011000001111100000011110 Y!
b11011110010111100000001111100000 ]!
b0 c!
b0 d!
b0 e!
b0 g!
b111110100 o!
b0 r!
b0 s!
b11001000 t!
b11011001 u!
b0 v!
b0 w!
b0 x!
b0 y!
b0 z!
b0 {!
b100011 %"
b100011 &"
b11111111111111111111111111111111 F!
bx M!
bx k!
bx m!
xv
xw
xx
xy
0+
0*
xK
xJ
xI
xH
xG
xF
xE
xD
xC
xB
xA
x@
x?
x>
x=
x<
x;
x:
x9
x8
x7
x6
x5
x4
x3
x2
x1
x0
x/
x.
x-
x,
xL
xM
xN
xn
xm
xl
xk
xj
xi
xh
xg
xf
xe
xd
xc
xb
xa
x`
x_
x^
x]
x\
x[
xZ
xY
xX
xW
xV
xU
xT
xS
xR
xQ
xP
xO
xr
xq
xp
xo
1t
xu
$end
#5
1!
1*
b0 z
b1 z
b10 z
b11 z
b100 z
b101 z
b110 z
b111 z
b1000 z
b1001 z
b1010 z
b1011 z
b1100 z
b1101 z
b1110 z
b1111 z
b10000 z
b10001 z
b10010 z
b10011 z
b10100 z
b10101 z
b10110 z
b10111 z
b11000 z
b11001 z
b11010 z
b11011 z
b11100 z
b11101 z
b11110 z
b11111 z
b100000 z
b100001 z
b100010 z
b100011 z
b100100 z
b100101 z
b100110 z
b100111 z
b101000 z
b101001 z
b101010 z
b101011 z
b101100 z
b101101 z
b101110 z
b101111 z
b110000 z
b110001 z
b110010 z
b110011 z
b110100 z
b110101 z
b110110 z
b110111 z
b111000 z
b111001 z
b111010 z
b111011 z
b111100 z
b111101 z
b111110 z
b111111 z
b1000000 z
b1000001 z
b1000010 z
b1000011 z
b1000100 z
b1000101 z
b1000110 z
b1000111 z
b1001000 z
b1001001 z
b1001010 z
b1001011 z
b1001100 z
b1001101 z
b1001110 z
b1001111 z
b1010000 z
b1010001 z
b1010010 z
b1010011 z
b1010100 z
b1010101 z
b1010110 z
b1010111 z
b1011000 z
b1011001 z
b1011010 z
b1011011 z
b1011100 z
b1011101 z
b1011110 z
b1011111 z
b1100000 z
b1100001 z
b1100010 z
b1100011 z
b1100100 z
b1100101 z
b1100110 z
b1100111 z
b1101000 z
b1101001 z
b1101010 z
b1101011 z
b1101100 z
b1101101 z
b1101110 z
b1101111 z
b1110000 z
b1110001 z
b1110010 z
b1110011 z
b1110100 z
b1110101 z
b1110110 z
b1110111 z
b1111000 z
b1111001 z
b1111010 z
b1111011 z
b1111100 z
b1111101 z
b1111110 z
b1111111 z
b10000000 z
b10000001 z
b10000010 z
b10000011 z
b10000100 z
b10000101 z
b10000110 z
b10000111 z
b10001000 z
b10001001 z
b10001010 z
b10001011 z
b10001100 z
b10001101 z
b10001110 z
b10001111 z
b10010000 z
b10010001 z
b10010010 z
b10010011 z
b10010100 z
b10010101 z
b10010110 z
b10010111 z
b10011000 z
b10011001 z
b10011010 z
b10011011 z
b10011100 z
b10011101 z
b10011110 z
b10011111 z
b10100000 z
b10100001 z
b10100010 z
b10100011 z
b10100100 z
b10100101 z
b10100110 z
b10100111 z
b10101000 z
b10101001 z
b10101010 z
b10101011 z
b10101100 z
b10101101 z
b10101110 z
b10101111 z
b10110000 z
b10110001 z
b10110010 z
b10110011 z
b10110100 z
b10110101 z
b10110110 z
b10110111 z
b10111000 z
b10111001 z
b10111010 z
b10111011 z
b10111100 z
b10111101 z
b10111110 z
b10111111 z
b11000000 z
b11000001 z
b11000010 z
b11000011 z
b11000100 z
b11000101 z
b11000110 z
b11000111 z
b11001000 z
b11001001 z
b11001010 z
b11001011 z
b11001100 z
b11001101 z
b11001110 z
b11001111 z
b11010000 z
b11010001 z
b11010010 z
b11010011 z
b11010100 z
b11010101 z
b11010110 z
b11010111 z
b11011000 z
b11011001 z
b11011010 z
b11011011 z
b11011100 z
b11011101 z
b11011110 z
b11011111 z
b11100000 z
b11100001 z
b11100010 z
b11100011 z
b11100100 z
b11100101 z
b11100110 z
b11100111 z
b11101000 z
b11101001 z
b11101010 z
b11101011 z
b11101100 z
b11101101 z
b11101110 z
b11101111 z
b11110000 z
b11110001 z
b11110010 z
b11110011 z
b11110100 z
b11110101 z
b11110110 z
b11110111 z
b11111000 z
b11111001 z
b11111010 z
b11111011 z
b11111100 z
b11111101 z
b11111110 z
b11111111 z
b100000000 z
b100100 &"
b100100 %"
0L
1M
1N
1r
1q
1p
1o
1n
0m
1l
0k
0j
0i
0h
0g
0f
0e
0d
0c
0b
0a
0`
0_
0^
0]
0\
0[
0Z
0Y
0X
0W
0V
0U
0T
0S
0R
0Q
0P
0O
0K
0J
0I
0H
0G
0F
0E
0D
0C
0B
0A
0@
0?
0>
0=
0<
0;
0:
09
08
07
06
05
04
03
02
01
00
0/
0.
0-
0,
0v
0x
1y
0u
0w
#10
0!
0*
#15
1!
1*
b0 z
b1 z
b10 z
b11 z
b100 z
b101 z
b110 z
b111 z
b1000 z
b1001 z
b1010 z
b1011 z
b1100 z
b1101 z
b1110 z
b1111 z
b10000 z
b10001 z
b10010 z
b10011 z
b10100 z
b10101 z
b10110 z
b10111 z
b11000 z
b11001 z
b11010 z
b11011 z
b11100 z
b11101 z
b11110 z
b11111 z
b100000 z
b100001 z
b100010 z
b100011 z
b100100 z
b100101 z
b100110 z
b100111 z
b101000 z
b101001 z
b101010 z
b101011 z
b101100 z
b101101 z
b101110 z
b101111 z
b110000 z
b110001 z
b110010 z
b110011 z
b110100 z
b110101 z
b110110 z
b110111 z
b111000 z
b111001 z
b111010 z
b111011 z
b111100 z
b111101 z
b111110 z
b111111 z
b1000000 z
b1000001 z
b1000010 z
b1000011 z
b1000100 z
b1000101 z
b1000110 z
b1000111 z
b1001000 z
b1001001 z
b1001010 z
b1001011 z
b1001100 z
b1001101 z
b1001110 z
b1001111 z
b1010000 z
b1010001 z
b1010010 z
b1010011 z
b1010100 z
b1010101 z
b1010110 z
b1010111 z
b1011000 z
b1011001 z
b1011010 z
b1011011 z
b1011100 z
b1011101 z
b1011110 z
b1011111 z
b1100000 z
b1100001 z
b1100010 z
b1100011 z
b1100100 z
b1100101 z
b1100110 z
b1100111 z
b1101000 z
b1101001 z
b1101010 z
b1101011 z
b1101100 z
b1101101 z
b1101110 z
b1101111 z
b1110000 z
b1110001 z
b1110010 z
b1110011 z
b1110100 z
b1110101 z
b1110110 z
b1110111 z
b1111000 z
b1111001 z
b1111010 z
b1111011 z
b1111100 z
b1111101 z
b1111110 z
b1111111 z
b10000000 z
b10000001 z
b10000010 z
b10000011 z
b10000100 z
b10000101 z
b10000110 z
b10000111 z
b10001000 z
b10001001 z
b10001010 z
b10001011 z
b10001100 z
b10001101 z
b10001110 z
b10001111 z
b10010000 z
b10010001 z
b10010010 z
b10010011 z
b10010100 z
b10010101 z
b10010110 z
b10010111 z
b10011000 z
b10011001 z
b10011010 z
b10011011 z
b10011100 z
b10011101 z
b10011110 z
b10011111 z
b10100000 z
b10100001 z
b10100010 z
b10100011 z
b10100100 z
b10100101 z
b10100110 z
b10100111 z
b10101000 z
b10101001 z
b10101010 z
b10101011 z
b10101100 z
b10101101 z
b10101110 z
b10101111 z
b10110000 z
b10110001 z
b10110010 z
b10110011 z
b10110100 z
b10110101 z
b10110110 z
b10110111 z
b10111000 z
b10111001 z
b10111010 z
b10111011 z
b10111100 z
b10111101 z
b10111110 z
b10111111 z
b11000000 z
b11000001 z
b11000010 z
b11000011 z
b11000100 z
b11000101 z
b11000110 z
b11000111 z
b11001000 z
b11001001 z
b11001010 z
b11001011 z
b11001100 z
b11001101 z
b11001110 z
b11001111 z
b11010000 z
b11010001 z
b11010010 z
b11010011 z
b11010100 z
b11010101 z
b11010110 z
b11010111 z
b11011000 z
b11011001 z
b11011010 z
b11011011 z
b11011100 z
b11011101 z
b11011110 z
b11011111 z
b11100000 z
b11100001 z
b11100010 z
b11100011 z
b11100100 z
b11100101 z
b11100110 z
b11100111 z
b11101000 z
b11101001 z
b11101010 z
b11101011 z
b11101100 z
b11101101 z
b11101110 z
b11101111 z
b11110000 z
b11110001 z
b11110010 z
b11110011 z
b11110100 z
b11110101 z
b11110110 z
b11110111 z
b11111000 z
b11111001 z
b11111010 z
b11111011 z
b11111100 z
b11111101 z
b11111110 z
b11111111 z
b100000000 z
1#
b100101 &"
b10101011100101111001101001010101 ]!
b10101011100101111001101001011000 ]!
b100101 %"
0M
#20
0!
0*
#25
1!
1*
1#
b100110 &"
b10101011100101111001101001011100 ]!
b10101011100101111001101001100001 ]!
b100110 %"
1L
#30
0!
0*
#35
1!
1*
1#
b100111 &"
b10101011100101111001101001100111 ]!
b10101011100101111001101001101110 ]!
b100111 %"
1M
1v
1w
#40
0!
0*
#45
1"
1!
1+
1*
b0 z
b1 z
b10 z
b11 z
b100 z
1#
#50
0!
0*
#55
1!
1*
b0 z
b1 z
b10 z
b11 z
b100 z
1$
b101000 &"
b10101011100101111001101001110110 ]!
b10101011100101111001101001111111 ]!
b101000 %"
0M
0q
0n
0l
1k
1j
1g
1e
1d
1c
1a
1`
1^
1\
1[
1Z
1X
1W
1V
1T
1O
1J
1G
1E
1D
1@
1=
18
17
16
13
12
11
10
1.
1,
0v
0y
0w
#60
0!
0*
#65
1!
1*
1#
b101001 &"
b10101011100101111001101010001001 ]!
b10101011100101111001101010010100 ]!
b101001 %"
1q
1m
0j
0g
0e
0d
0c
0a
0`
0^
0\
0[
0Z
0X
0W
0V
0T
0O
1K
0J
0G
0E
0D
0@
0=
08
07
06
03
02
01
00
0.
0,
1y
#70
0!
0*
#75
1!
1*
1#
b101010 &"
b10101011100101111001101010100000 ]!
b10101011100101111001101010101101 ]!
b101010 %"
1M
1v
1w
#80
0!
0*
#85
1!
1*
b0 z
b1 z
b10 z
b11 z
b100 z
1#
#90
0!
0*
#95
1!
1*
b0 z
b1 z
b10 z
b11 z
b100 z
1$
b101011 &"
b10101011100101111001101010111011 ]!
b10101011100101111001101011001010 ]!
b101011 %"
0M
0N
0p
1n
0k
1h
1b
1`
1_
1\
1Q
1O
1H
1G
1F
1C
1A
1?
1=
1:
19
17
15
13
0v
1x
0w
0y
0x
#100
0!
0*
#105
1!
1*
1#
b101100 &"
b10101011100101111001101011011010 ]!
b10101011100101111001101011101011 ]!
b101100 %"
1N
1p
1l
1k
0h
0b
0`
0_
0\
0Q
0O
0K
1J
0H
0G
0F
0C
0A
0?
0=
0:
09
07
05
03
1y
#110
0!
0*
#115
1!
1*
1#
b101101 &"
b10101011100101111001101011111101 ]!
b10101011100101111001101100010000 ]!
b101101 %"
1M
1v
1w
#120
0!
0*
#125
1!
1*
b0 z
b1 z
b10 z
b11 z
b100 z
1#
#130
0!
0*
#135
1!
1*
b0 z
b1 z
b10 z
b11 z
b100 z
1$
b101110 &"
b10101011100101111001101100100100 ]!
b10101011100101111001101100111001 ]!
b101110 %"
0M
0r
0p
0o
0m
0k
1i
1f
1e
1d
1b
1W
1S
0J
1G
1F
1E
1D
1B
1>
1;
17
15
13
11
1-
1,
0v
0y
0w
#140
0!
0*
#145
1!
1*
1#
b101111 &"
b10101011100101111001101101001111 ]!
b10101011100101111001101101100110 ]!
b101111 %"
1r
1p
1o
0n
1j
0i
0f
0e
0d
0b
0W
0S
1K
1J
0G
0F
0E
0D
0B
0>
0;
07
05
03
01
0-
0,
1y
#150
0!
0*
#155
1!
1*
1#
b110000 &"
b10101011100101111001101101111110 ]!
b10101011100101111001101110010111 ]!
b110000 %"
1M
1v
1w
#160
0!
0*
#165
1!
1*
b0 z
b1 z
b10 z
b11 z
b100 z
1#
#170
0!
0*
#175
1!
1*
b0 z
b1 z
b10 z
b11 z
b100 z
1$
b110001 &"
b10101011100101111001101110110001 ]!
b10101011100101111001101111001100 ]!
b110001 %"
0M
0N
0r
0p
0o
1m
1k
0j
1g
1f
1d
1a
1_
1^
1]
1\
1Z
1Y
1X
1U
1T
1S
1R
1Q
1O
1H
1G
1F
1C
1@
1?
1=
1<
18
17
16
14
13
12
11
0v
1x
0w
0y
0x
#180
0!
0*
#185
1!
1*
1#
b110010 &"
b10101011100101111001101111101000 ]!
b10101011100101111001110000000101 ]!
b110010 %"
1N
1r
1p
1o
1n
0m
0l
1j
0g
0f
0d
0a
0_
0^
0]
0\
0Z
0Y
0X
0U
0T
0S
0R
0Q
0O
0K
0J
1I
0H
0G
0F
0C
0@
0?
0=
0<
08
07
06
04
03
02
01
1y
#190
0!
0*
#195
1!
1*
1#
b110011 &"
b10101011100101111001110000100011 ]!
b10101011100101111001110001000010 ]!
b110011 %"
1M
1v
1w
#200
0!
0*
#205
1!
1*
b0 z
b1 z
b10 z
b11 z
b100 z
1#
#210
0!
0*
#215
1!
1*
b0 z
b1 z
b10 z
b11 z
b100 z
1$
b110100 &"
b10101011100101111001110001100010 ]!
b10101011100101111001110010000011 ]!
b110100 %"
0M
1m
1l
0j
1g
1f
1a
1`
1^
1\
1[
1Y
1X
1W
1V
1U
1T
1S
1O
1K
1J
1E
1@
1>
1=
1<
1;
19
18
17
13
11
10
1.
1-
1,
0v
0y
0w
#220
0!
0*
#225
1!
1*
1#
b110101 &"
b10101011100101111001110010100101 ]!
b10101011100101111001110011001000 ]!
b110101 %"
0n
1j
0g
0f
0a
0`
0^
0\
0[
0Y
0X
0W
0V
0U
0T
0S
0O
0J
0E
0@
0>
0=
0<
0;
09
08
07
03
01
00
0.
0-
0,
1y
#230
0!
0*
#235
1!
1*
1#
b110110 &"
b10101011100101111001110011101100 ]!
b10101011100101111001110100010001 ]!
b110110 %"
1M
1v
1w
#240
0!
0*
#245
1!
1*
b0 z
b1 z
b10 z
b11 z
b100 z
1#
#250
0!
0*
#255
1!
1*
b0 z
b1 z
b10 z
b11 z
b100 z
1$
b110111 &"
b10101011100101111001110100110111 ]!
b10101011100101111001110101011110 ]!
b110111 %"
0M
0N
0q
0p
0m
1i
1f
1d
1c
1b
1a
1`
1_
1\
1X
1W
1U
1T
1R
1P
1O
0K
1G
1F
1B
1A
1?
1=
1<
1;
18
16
15
13
12
10
1/
1-
0v
1x
0w
0y
0x
#260
0!
0*
#265
1!
1*
1#
b111000 &"
b10101011100101111001110110000110 ]!
b10101011100101111001110110101111 ]!
b111000 %"
1N
1q
1p
1n
1m
0l
0k
0j
0f
0d
0c
0b
0a
0`
0_
0\
0X
0W
0U
0T
0R
0P
0O
1J
0G
0F
0B
0A
0?
0=
0<
0;
08
06
05
03
02
00
0/
0-
1y
#270
0!
0*
#275
1!
1*
1#
b111001 &"
b10101011100101111001110111011001 ]!
b10101011100101111001111000000100 ]!
b111001 %"
1M
1v
1w
#280
0!
0*
#285
1!
1*
b0 z
b1 z
b10 z
b11 z
b100 z
1#
#290
0!
0*
#295
1!
1*
b0 z
b1 z
b10 z
b11 z
b100 z
1$
b111010 &"
b10101011100101111001111000110000 ]!
b10101011100101111001111001011101 ]!
b111010 %"
0M
0r
0p
0n
0m
1l
1k
1j
1h
1f
1e
1d
1c
1b
1]
1\
1[
1Z
1X
1W
1V
1T
1R
1O
1K
0I
1H
1F
1C
1B
1A
1@
1>
1=
1;
1:
19
15
14
12
11
1.
1-
0v
0y
0w
#300
0!
0*
#305
1!
1*
1#
b111011 &"
b10101011100101111001111010001011 ]!
b10101011100101111001111010111010 ]!
b111011 %"
1r
1p
0l
0j
0h
0f
0e
0d
0c
0b
0]
0\
0[
0Z
0X
0W
0V
0T
0R
0O
1I
0H
0F
0C
0B
0A
0@
0>
0=
0;
0:
09
05
04
02
01
0.
0-
1y
#310
0!
0*
#315
1!
1*
1#
b111100 &"
b10101011100101111001111011101010 ]!
b10101011100101111001111100011011 ]!
b111100 %"
1M
1v
1w
#320
0!
0*
#325
1!
1*
b0 z
b1 z
b10 z
b11 z
b100 z
1#
#330
0!
0*
#335
1!
1*
b0 z
b1 z
b10 z
b11 z
b100 z
1$
b111101 &"
b10101011100101111001111101001101 ]!
b10101011100101111001111110000000 ]!
b111101 %"
0M
0r
0p
1m
1l
1h
1e
1d
1c
1b
1a
1^
1Z
1Y
1V
1U
1T
1S
1Q
0K
0J
0I
1G
1E
1D
1B
1@
1>
1;
17
16
15
14
11
10
1/
1-
1,
0v
0y
0w
#340
0!
0*
#345
1!
1*
1#
b111110 &"
b10101011100101111001111110110100 ]!
b10101011100101111001111111101001 ]!
b111110 %"
1r
1p
1n
0m
0h
0e
0d
0c
0b
0a
0^
0Z
0Y
0V
0U
0T
0S
0Q
1H
0G
0E
0D
0B
0@
0>
0;
07
06
05
04
01
00
0/
0-
0,
1y
#350
0!
0*
#355
1!
1*
1#
b111111 &"
b10101011100101111010000000011111 ]!
b10101011100101111010000001010110 ]!
b111111 %"
1M
1v
1w
#360
0!
0*
#365
1!
1*
b0 z
b1 z
b10 z
b11 z
b100 z
1#
#370
0!
0*
#375
1!
1*
b0 z
b1 z
b10 z
b11 z
b100 z
1$
b1000000 &"
b10101011100101111010000010001110 ]!
b10101011100101111010000011000111 ]!
b1000000 %"
0M
0N
0q
1j
1g
1e
1\
1X
1P
1K
1J
1I
1G
1F
1D
1C
1>
1=
1<
1:
18
16
14
12
11
1/
1.
1-
1,
0v
1x
0w
0y
0x
#380
0!
0*
#385
1!
1*
1#
b1000001 &"
b10101011100101111010000100000001 ]!
b10101011100101111010000100111100 ]!
b1000001 %"
1N
1q
0n
1m
0l
0k
0g
0e
0\
0X
0P
0J
0I
0G
0F
0D
0C
0>
0=
0<
0:
08
06
04
02
01
0/
0.
0-
0,
1y
#390
0!
0*
#395
1!
1*
1#
b1000010 &"
b10101011100101111010000101111000 ]!
b10101011100101111010000110110101 ]!
b1000010 %"
1M
1v
1w
#400
0!
0*
#405
1!
1*
b0 z
b1 z
b10 z
b11 z
b100 z
1#
#410
0!
0*
